<?xml version="1.0" encoding="UTF-8" standalone="no"?>
<!-- Created with Inkscape (http://www.inkscape.org/) -->

<svg
   xmlns:dc="http://purl.org/dc/elements/1.1/"
   xmlns:cc="http://creativecommons.org/ns#"
   xmlns:rdf="http://www.w3.org/1999/02/22-rdf-syntax-ns#"
   xmlns:svg="http://www.w3.org/2000/svg"
   xmlns="http://www.w3.org/2000/svg"
   xmlns:sodipodi="http://sodipodi.sourceforge.net/DTD/sodipodi-0.dtd"
   xmlns:inkscape="http://www.inkscape.org/namespaces/inkscape"
   width="140.557586mm"
   height="27.4432mm"
   viewBox="0 0 70.278793 13.7216"
   version="1.1"
   id="svg8"
   inkscape:version="0.92.3 (2405546, 2018-03-11)"
   sodipodi:docname="logo_graphcommons.svg">
  <defs
     id="defs2" />
  <sodipodi:namedview
     id="base"
     pagecolor="#ffffff"
     bordercolor="#666666"
     borderopacity="1.0"
     inkscape:pageopacity="0.0"
     inkscape:pageshadow="2"
     inkscape:zoom="2.8"
     inkscape:cx="206.65752"
     inkscape:cy="-38.709687"
     inkscape:document-units="mm"
     inkscape:current-layer="text20"
     showgrid="false"
     fit-margin-top="3"
     fit-margin-left="3"
     fit-margin-right="3"
     fit-margin-bottom="3"
     inkscape:window-width="2560"
     inkscape:window-height="1398"
     inkscape:window-x="3840"
     inkscape:window-y="20"
     inkscape:window-maximized="0" />
  <metadata
     id="metadata5">
    <rdf:RDF>
      <cc:Work
         rdf:about="">
        <dc:format>image/svg+xml</dc:format>
        <dc:type
           rdf:resource="http://purl.org/dc/dcmitype/StillImage" />
        <dc:title />
      </cc:Work>
    </rdf:RDF>
  </metadata>
  <g
     inkscape:label="Calque 1"
     inkscape:groupmode="layer"
     id="layer1"
     transform="translate(-55.914857,-40.540558)">
    <g
       transform="scale(0.26458333)"
       style="font-style:normal;font-variant:normal;font-weight:normal;font-stretch:normal;font-size:40px;line-height:1.25;font-family:'Apercu Pro';-inkscape-font-specification:'Apercu Pro';letter-spacing:0px;word-spacing:0px;fill:#ffffff;fill-opacity:1;stroke:none"
       id="flowRoot10" />
    <g
       aria-label="Graph Commons"
       style="font-style:normal;font-weight:normal;font-size:10.58333302px;line-height:1.25;font-family:sans-serif;letter-spacing:0px;word-spacing:0px;fill:#ffffff;fill-opacity:1;stroke:none;stroke-width:0.26458332"
       id="text20">
      <path
         d="M 64.121857,49.534958 H 63.19899 l -0.09313,-0.635 q -0.474133,0.702733 -1.439333,0.702733 -1.143,0 -1.938867,-0.795866 -0.795866,-0.795867 -0.795866,-2.2352 0,-1.439334 0.821266,-2.2352 0.821267,-0.795867 1.998133,-0.795867 0.9398,0 1.583267,0.508 0.643467,0.499533 0.880533,1.363133 l -1.007533,0.262467 q -0.4572,-1.1176 -1.456267,-1.1176 -0.778933,0 -1.244599,0.524933 -0.4572,0.524934 -0.4572,1.490134 0,0.9906 0.448733,1.507066 0.4572,0.508 1.227666,0.508 0.575734,0 0.922867,-0.321733 0.347133,-0.321733 0.4064,-0.804333 H 61.95439 v -0.9144 h 2.167467 z"
         style="font-style:normal;font-variant:normal;font-weight:bold;font-stretch:normal;font-size:8.46666622px;font-family:Apercu;-inkscape-font-specification:'Apercu Bold';stroke-width:0.26458332"
         id="path4522" />
      <path
         d="m 66.37108,48.019425 v 1.515533 h -1.049867 v -4.2672 h 1.049867 v 0.694267 q 0.4826,-0.762 1.261533,-0.762 0.254,0 0.516467,0.08467 l -0.194734,0.973667 q -0.194733,-0.118533 -0.440266,-0.118533 -0.524934,0 -0.8382,0.474133 -0.3048,0.465667 -0.3048,1.405467 z"
         style="font-style:normal;font-variant:normal;font-weight:bold;font-stretch:normal;font-size:8.46666622px;font-family:Apercu;-inkscape-font-specification:'Apercu Bold';stroke-width:0.26458332"
         id="path4524" />
      <path
         d="m 69.636964,46.588558 -0.889,-0.2032 q 0.1016,-0.5334 0.541866,-0.855133 0.448734,-0.3302 1.083734,-0.3302 1.794933,0 1.794933,1.786466 v 2.548467 h -0.8636 L 71.19483,48.993091 q -0.491066,0.6096 -1.312333,0.6096 -0.575733,0 -0.9398,-0.347133 -0.3556,-0.347133 -0.3556,-0.948267 0,-0.635 0.499533,-1.016 0.508,-0.381 1.3208,-0.381 h 0.7112 v -0.186266 q 0,-0.626534 -0.745066,-0.626534 -0.575734,0 -0.7366,0.491067 z m 0.0508,1.7018 q 0,0.1778 0.118533,0.296333 0.118533,0.118534 0.321733,0.118534 0.389467,0 0.6858,-0.245534 0.3048,-0.245533 0.3048,-0.635 v -0.08467 h -0.702733 q -0.728133,0 -0.728133,0.550333 z"
         style="font-style:normal;font-variant:normal;font-weight:bold;font-stretch:normal;font-size:8.46666622px;font-family:Apercu;-inkscape-font-specification:'Apercu Bold';stroke-width:0.26458332"
         id="path4526" />
      <path
         d="m 75.324976,49.602691 q -0.3048,0 -0.592666,-0.127 -0.287867,-0.135466 -0.440267,-0.3302 v 2.116667 h -1.049867 v -5.9944 h 1.049867 v 0.440267 q 0.110067,-0.194734 0.397933,-0.347134 0.296334,-0.160866 0.635,-0.160866 0.931334,0 1.439334,0.592666 0.508,0.5842 0.508,1.608667 0,1.024467 -0.508,1.617133 -0.508,0.5842 -1.439334,0.5842 z m 0.567267,-1.2446 q 0.2794,-0.338666 0.2794,-0.956733 0,-0.6096 -0.2794,-0.956733 -0.2794,-0.347134 -0.7112,-0.347134 -0.4318,0 -0.7112,0.347134 -0.270933,0.347133 -0.270933,0.956733 0,0.618067 0.270933,0.9652 0.2794,0.338667 0.7112,0.338667 0.4318,0 0.7112,-0.347134 z"
         style="font-style:normal;font-variant:normal;font-weight:bold;font-stretch:normal;font-size:8.46666622px;font-family:Apercu;-inkscape-font-specification:'Apercu Bold';stroke-width:0.26458332"
         id="path4528" />
      <path
         d="m 78.285797,49.534958 v -5.9944 h 1.049866 v 2.413 q 0.474134,-0.753533 1.354667,-0.753533 0.626533,0 0.973666,0.3302 0.3556,0.3302 0.3556,0.956733 v 3.048 H 80.96973 v -2.675467 q 0,-0.762 -0.635,-0.762 -0.4318,0 -0.719667,0.4318 -0.2794,0.4318 -0.2794,1.202267 v 1.8034 z"
         style="font-style:normal;font-variant:normal;font-weight:bold;font-stretch:normal;font-size:8.46666622px;font-family:Apercu;-inkscape-font-specification:'Apercu Bold';stroke-width:0.26458332"
         id="path4530" />
      <path
         d="m 90.399876,45.335491 -0.9906,0.254 q -0.397934,-1.032933 -1.464734,-1.032933 -0.728133,0 -1.210733,0.516467 -0.474133,0.524933 -0.474133,1.4986 0,0.973666 0.474133,1.4986 0.4826,0.516466 1.210733,0.516466 1.0668,0 1.464734,-1.032933 l 0.9906,0.254 q -0.211667,0.855133 -0.855134,1.329267 -0.635,0.465666 -1.6002,0.465666 -1.1684,0 -1.989666,-0.804333 -0.8128,-0.795867 -0.8128,-2.226733 0,-1.430867 0.8128,-2.226734 0.821266,-0.804333 1.989666,-0.804333 0.9652,0 1.6002,0.474134 0.643467,0.465666 0.855134,1.320799 z"
         style="font-style:normal;font-variant:normal;font-weight:bold;font-stretch:normal;font-size:8.46666622px;font-family:Apercu;-inkscape-font-specification:'Apercu Bold';stroke-width:0.26458332"
         id="path4532" />
      <path
         d="m 93.303018,49.602691 q -0.999067,0 -1.583267,-0.618066 -0.5842,-0.618067 -0.5842,-1.583267 0,-0.948267 0.5842,-1.5748 0.5842,-0.626533 1.583267,-0.626533 0.999066,0 1.583266,0.626533 0.5842,0.626533 0.5842,1.5748 0,0.9652 -0.5842,1.583267 -0.5842,0.618066 -1.583266,0.618066 z m -0.778934,-3.1242 q -0.287866,0.364067 -0.287866,0.922867 0,0.5588 0.287866,0.931333 0.296334,0.372534 0.778934,0.372534 0.4826,0 0.778933,-0.372534 0.287867,-0.372533 0.287867,-0.931333 0,-0.5588 -0.287867,-0.922867 -0.296333,-0.381 -0.778933,-0.381 -0.491067,0 -0.778934,0.381 z"
         style="font-style:normal;font-variant:normal;font-weight:bold;font-stretch:normal;font-size:8.46666622px;font-family:Apercu;-inkscape-font-specification:'Apercu Bold';stroke-width:0.26458332"
         id="path4534" />
      <path
         d="m 100.02343,47.875491 v 1.659467 h -1.049865 v -2.8448 q 0,-0.592667 -0.524934,-0.592667 -0.414866,0 -0.668866,0.491067 -0.254,0.491067 -0.254,1.380067 v 1.566333 h -1.049867 v -4.2672 h 1.049867 v 0.6858 q 0.499533,-0.753533 1.227666,-0.753533 0.423334,0 0.745067,0.2286 0.321733,0.2286 0.448733,0.651933 0.499529,-0.880533 1.303869,-0.880533 0.59266,0 0.93133,0.347133 0.33867,0.347133 0.33867,0.9652 v 3.0226 h -1.04987 v -2.8448 q 0,-0.592667 -0.52493,-0.592667 -0.41487,0 -0.66887,0.465667 -0.254,0.465667 -0.254,1.312333 z"
         style="font-style:normal;font-variant:normal;font-weight:bold;font-stretch:normal;font-size:8.46666622px;font-family:Apercu;-inkscape-font-specification:'Apercu Bold';stroke-width:0.26458332"
         id="path4536" />
      <path
         d="m 107.20025,47.875491 v 1.659467 h -1.04986 v -2.8448 q 0,-0.592667 -0.52494,-0.592667 -0.41486,0 -0.66886,0.491067 -0.254,0.491067 -0.254,1.380067 v 1.566333 h -1.04987 v -4.2672 h 1.04987 v 0.6858 q 0.49953,-0.753533 1.22766,-0.753533 0.42334,0 0.74507,0.2286 0.32173,0.2286 0.44873,0.651933 0.49954,-0.880533 1.30387,-0.880533 0.59267,0 0.93133,0.347133 0.33867,0.347133 0.33867,0.9652 v 3.0226 h -1.04987 v -2.8448 q 0,-0.592667 -0.52493,-0.592667 -0.41487,0 -0.66887,0.465667 -0.254,0.465667 -0.254,1.312333 z"
         style="font-style:normal;font-variant:normal;font-weight:bold;font-stretch:normal;font-size:8.46666622px;font-family:Apercu;-inkscape-font-specification:'Apercu Bold';stroke-width:0.26458332"
         id="path4538" />
      <path
         d="m 112.7995,49.602691 q -0.99907,0 -1.58327,-0.618066 -0.5842,-0.618067 -0.5842,-1.583267 0,-0.948267 0.5842,-1.5748 0.5842,-0.626533 1.58327,-0.626533 0.99907,0 1.58327,0.626533 0.5842,0.626533 0.5842,1.5748 0,0.9652 -0.5842,1.583267 -0.5842,0.618066 -1.58327,0.618066 z m -0.77893,-3.1242 q -0.28787,0.364067 -0.28787,0.922867 0,0.5588 0.28787,0.931333 0.29633,0.372534 0.77893,0.372534 0.4826,0 0.77893,-0.372534 0.28787,-0.372533 0.28787,-0.931333 0,-0.5588 -0.28787,-0.922867 -0.29633,-0.381 -0.77893,-0.381 -0.49107,0 -0.77893,0.381 z"
         style="font-style:normal;font-variant:normal;font-weight:bold;font-stretch:normal;font-size:8.46666622px;font-family:Apercu;-inkscape-font-specification:'Apercu Bold';stroke-width:0.26458332"
         id="path4540" />
      <path
         d="m 115.90624,49.534958 v -4.2672 h 1.04986 v 0.6858 q 0.52494,-0.753533 1.3208,-0.753533 0.60114,0 0.95674,0.338666 0.3556,0.3302 0.3556,0.948267 v 3.048 h -1.04987 v -2.734733 q 0,-0.702734 -0.6096,-0.702734 -0.41487,0 -0.69427,0.474134 -0.2794,0.474133 -0.2794,1.261533 v 1.7018 z"
         style="font-style:normal;font-variant:normal;font-weight:bold;font-stretch:normal;font-size:8.46666622px;font-family:Apercu;-inkscape-font-specification:'Apercu Bold';stroke-width:0.26458332"
         id="path4542" />
      <path
         d="m 122.0795,45.200025 q 0.41486,0 0.77046,0.194733 0.36407,0.186267 0.56727,0.499533 l -0.62653,0.575734 q -0.29634,-0.372534 -0.7112,-0.372534 -0.16934,0 -0.2794,0.09313 -0.11007,0.09313 -0.11007,0.262466 0,0.262467 0.4064,0.414867 l 0.3048,0.110067 0.36407,0.127 q 0.0593,0.0254 0.3048,0.160866 0.2286,0.118534 0.3048,0.220134 0.26246,0.296333 0.26246,0.694266 0,0.5842 -0.42333,1.007534 -0.41487,0.414866 -1.0922,0.414866 -0.6096,0 -1.05833,-0.347133 -0.44027,-0.338667 -0.635,-0.804333 l 0.8382,-0.448734 q 0.254,0.702734 0.85513,0.702734 0.52493,0 0.52493,-0.4572 0,-0.211667 -0.2286,-0.321734 -0.1016,-0.05927 -0.23706,-0.1016 -0.0762,-0.03387 -0.3048,-0.118533 -0.2286,-0.08467 -0.29634,-0.110067 -0.4318,-0.186266 -0.65193,-0.448733 -0.21167,-0.262467 -0.21167,-0.702733 0,-0.516467 0.381,-0.880534 0.37254,-0.364066 0.98214,-0.364066 z"
         style="font-style:normal;font-variant:normal;font-weight:bold;font-stretch:normal;font-size:8.46666622px;font-family:Apercu;-inkscape-font-specification:'Apercu Bold';stroke-width:0.26458332"
         id="path4544" />
    </g>
  </g>
</svg>
